%!PS-Adobe-3.0 EPSF-3.0
%%Title: figures/TOC.eps
%%Creator: matplotlib version 1.4.0, http://matplotlib.org/
%%CreationDate: Tue Oct 14 13:08:40 2014
%%Orientation: portrait
%%BoundingBox: 234 324 378 468
%%EndComments
%%BeginProlog
/mpldict 9 dict def
mpldict begin
/m { moveto } bind def
/l { lineto } bind def
/r { rlineto } bind def
/c { curveto } bind def
/cl { closepath } bind def
/box {
m
1 index 0 r
0 exch r
neg 0 r
cl
} bind def
/clipbox {
box
clip
newpath
} bind def
%!PS-Adobe-3.0 Resource-Font
%%Title: Bitstream Vera Sans
%%Copyright: Copyright (c) 2003 by Bitstream, Inc. All Rights Reserved.
%%Creator: Converted from TrueType to type 3 by PPR
25 dict begin
/_d{bind def}bind def
/_m{moveto}_d
/_l{lineto}_d
/_cl{closepath eofill}_d
/_c{curveto}_d
/_sc{7 -1 roll{setcachedevice}{pop pop pop pop pop pop}ifelse}_d
/_e{exec}_d
/FontName /BitstreamVeraSans-Roman def
/PaintType 0 def
/FontMatrix[.001 0 0 .001 0 0]def
/FontBBox[-183 -236 1287 928]def
/FontType 3 def
/Encoding [ /space /comma /A /B /C /E /I /a /c /d /e /f /g /i /n /o /p /r /s /t /v ] def
/FontInfo 10 dict dup begin
/FamilyName (Bitstream Vera Sans) def
/FullName (Bitstream Vera Sans) def
/Notice (Copyright (c) 2003 by Bitstream, Inc. All Rights Reserved. Bitstream Vera is a trademark of Bitstream, Inc.) def
/Weight (Roman) def
/Version (Release 1.10) def
/ItalicAngle 0.0 def
/isFixedPitch false def
/UnderlinePosition -213 def
/UnderlineThickness 143 def
end readonly def
/CharStrings 21 dict dup begin
/space{318 0 0 0 0 0 _sc
}_d
/comma{318 0 77 -115 220 124 _sc
117 124 _m
220 124 _l
220 40 _l
140 -115 _l
77 -115 _l
117 40 _l
117 124 _l
_cl}_d
/A{684 0 8 0 676 729 _sc
342 632 _m
208 269 _l
476 269 _l
342 632 _l
286 729 _m
398 729 _l
676 0 _l
573 0 _l
507 187 _l
178 187 _l
112 0 _l
8 0 _l
286 729 _l
_cl}_d
/B{{686 0 98 0 615 729 _sc
197 348 _m
197 81 _l
355 81 _l
408 81 447 92 473 114 _c
498 136 511 169 511 215 _c
511 260 498 293 473 315 _c
447 337 408 348 355 348 _c
197 348 _l
197 648 _m
197 428 _l
343 428 _l
391 428 426 437 450 455 _c
474 473 486 500 486 538 _c
486 574 474 602 450 620 _c
426 638 391 648 343 648 _c
197 648 _l
98 729 _m
350 729 _l
}_e{425 729 483 713 524 682 _c
564 650 585 606 585 549 _c
585 504 574 468 553 442 _c
532 416 502 399 462 393 _c
510 382 548 360 575 327 _c
601 294 615 253 615 204 _c
615 138 592 88 548 53 _c
504 17 441 0 360 0 _c
98 0 _l
98 729 _l
_cl}_e}_d
/C{{698 0 56 -13 644 742 _sc
644 673 _m
644 569 _l
610 599 575 622 537 638 _c
499 653 460 661 418 661 _c
334 661 270 635 226 584 _c
182 533 160 460 160 364 _c
160 268 182 194 226 143 _c
270 92 334 67 418 67 _c
460 67 499 74 537 90 _c
575 105 610 128 644 159 _c
644 56 _l
609 32 572 15 534 4 _c
496 -7 455 -13 412 -13 _c
302 -13 215 20 151 87 _c
}_e{87 154 56 246 56 364 _c
56 481 87 573 151 641 _c
215 708 302 742 412 742 _c
456 742 497 736 535 725 _c
573 713 610 696 644 673 _c
_cl}_e}_d
/E{632 0 98 0 568 729 _sc
98 729 _m
559 729 _l
559 646 _l
197 646 _l
197 430 _l
544 430 _l
544 347 _l
197 347 _l
197 83 _l
568 83 _l
568 0 _l
98 0 _l
98 729 _l
_cl}_d
/I{295 0 98 0 197 729 _sc
98 729 _m
197 729 _l
197 0 _l
98 0 _l
98 729 _l
_cl}_d
/a{{613 0 60 -13 522 560 _sc
343 275 _m
270 275 220 266 192 250 _c
164 233 150 205 150 165 _c
150 133 160 107 181 89 _c
202 70 231 61 267 61 _c
317 61 357 78 387 114 _c
417 149 432 196 432 255 _c
432 275 _l
343 275 _l
522 312 _m
522 0 _l
432 0 _l
432 83 _l
411 49 385 25 355 10 _c
325 -5 287 -13 243 -13 _c
187 -13 142 2 109 33 _c
76 64 60 106 60 159 _c
}_e{60 220 80 266 122 298 _c
163 329 224 345 306 345 _c
432 345 _l
432 354 _l
432 395 418 427 391 450 _c
364 472 326 484 277 484 _c
245 484 215 480 185 472 _c
155 464 127 453 100 439 _c
100 522 _l
132 534 164 544 195 550 _c
226 556 256 560 286 560 _c
365 560 424 539 463 498 _c
502 457 522 395 522 312 _c
_cl}_e}_d
/c{{550 0 55 -13 488 560 _sc
488 526 _m
488 442 _l
462 456 437 466 411 473 _c
385 480 360 484 334 484 _c
276 484 230 465 198 428 _c
166 391 150 339 150 273 _c
150 206 166 154 198 117 _c
230 80 276 62 334 62 _c
360 62 385 65 411 72 _c
437 79 462 90 488 104 _c
488 21 _l
462 9 436 0 410 -5 _c
383 -10 354 -13 324 -13 _c
242 -13 176 12 128 64 _c
}_e{79 115 55 185 55 273 _c
55 362 79 432 128 483 _c
177 534 244 560 330 560 _c
358 560 385 557 411 551 _c
437 545 463 537 488 526 _c
_cl}_e}_d
/d{{635 0 55 -13 544 760 _sc
454 464 _m
454 760 _l
544 760 _l
544 0 _l
454 0 _l
454 82 _l
435 49 411 25 382 10 _c
353 -5 319 -13 279 -13 _c
213 -13 159 13 117 65 _c
75 117 55 187 55 273 _c
55 359 75 428 117 481 _c
159 533 213 560 279 560 _c
319 560 353 552 382 536 _c
411 520 435 496 454 464 _c
148 273 _m
148 207 161 155 188 117 _c
215 79 253 61 301 61 _c
}_e{348 61 385 79 413 117 _c
440 155 454 207 454 273 _c
454 339 440 390 413 428 _c
385 466 348 485 301 485 _c
253 485 215 466 188 428 _c
161 390 148 339 148 273 _c
_cl}_e}_d
/e{{615 0 55 -13 562 560 _sc
562 296 _m
562 252 _l
149 252 _l
153 190 171 142 205 110 _c
238 78 284 62 344 62 _c
378 62 412 66 444 74 _c
476 82 509 95 541 113 _c
541 28 _l
509 14 476 3 442 -3 _c
408 -9 373 -13 339 -13 _c
251 -13 182 12 131 62 _c
80 112 55 181 55 268 _c
55 357 79 428 127 481 _c
175 533 241 560 323 560 _c
397 560 455 536 498 489 _c
}_e{540 441 562 377 562 296 _c
472 322 _m
471 371 457 410 431 440 _c
404 469 368 484 324 484 _c
274 484 234 469 204 441 _c
174 413 156 373 152 322 _c
472 322 _l
_cl}_e}_d
/f{352 0 23 0 371 760 _sc
371 760 _m
371 685 _l
285 685 _l
253 685 230 678 218 665 _c
205 652 199 629 199 595 _c
199 547 _l
347 547 _l
347 477 _l
199 477 _l
199 0 _l
109 0 _l
109 477 _l
23 477 _l
23 547 _l
109 547 _l
109 585 _l
109 645 123 690 151 718 _c
179 746 224 760 286 760 _c
371 760 _l
_cl}_d
/g{{635 0 55 -207 544 560 _sc
454 280 _m
454 344 440 395 414 431 _c
387 467 349 485 301 485 _c
253 485 215 467 188 431 _c
161 395 148 344 148 280 _c
148 215 161 165 188 129 _c
215 93 253 75 301 75 _c
349 75 387 93 414 129 _c
440 165 454 215 454 280 _c
544 68 _m
544 -24 523 -93 482 -139 _c
440 -184 377 -207 292 -207 _c
260 -207 231 -204 203 -200 _c
175 -195 147 -188 121 -178 _c
}_e{121 -91 _l
147 -105 173 -115 199 -122 _c
225 -129 251 -133 278 -133 _c
336 -133 380 -117 410 -87 _c
439 -56 454 -10 454 52 _c
454 96 _l
435 64 411 40 382 24 _c
353 8 319 0 279 0 _c
211 0 157 25 116 76 _c
75 127 55 195 55 280 _c
55 364 75 432 116 483 _c
157 534 211 560 279 560 _c
319 560 353 552 382 536 _c
411 520 435 496 454 464 _c
454 547 _l
544 547 _l
}_e{544 68 _l
_cl}_e}_d
/i{278 0 94 0 184 760 _sc
94 547 _m
184 547 _l
184 0 _l
94 0 _l
94 547 _l
94 760 _m
184 760 _l
184 646 _l
94 646 _l
94 760 _l
_cl}_d
/n{634 0 91 0 549 560 _sc
549 330 _m
549 0 _l
459 0 _l
459 327 _l
459 379 448 417 428 443 _c
408 469 378 482 338 482 _c
289 482 251 466 223 435 _c
195 404 181 362 181 309 _c
181 0 _l
91 0 _l
91 547 _l
181 547 _l
181 462 _l
202 494 227 519 257 535 _c
286 551 320 560 358 560 _c
420 560 468 540 500 501 _c
532 462 549 405 549 330 _c
_cl}_d
/o{612 0 55 -13 557 560 _sc
306 484 _m
258 484 220 465 192 427 _c
164 389 150 338 150 273 _c
150 207 163 156 191 118 _c
219 80 257 62 306 62 _c
354 62 392 80 420 118 _c
448 156 462 207 462 273 _c
462 337 448 389 420 427 _c
392 465 354 484 306 484 _c
306 560 _m
384 560 445 534 490 484 _c
534 433 557 363 557 273 _c
557 183 534 113 490 63 _c
445 12 384 -13 306 -13 _c
227 -13 165 12 121 63 _c
77 113 55 183 55 273 _c
55 363 77 433 121 484 _c
165 534 227 560 306 560 _c
_cl}_d
/p{{635 0 91 -207 580 560 _sc
181 82 _m
181 -207 _l
91 -207 _l
91 547 _l
181 547 _l
181 464 _l
199 496 223 520 252 536 _c
281 552 316 560 356 560 _c
422 560 476 533 518 481 _c
559 428 580 359 580 273 _c
580 187 559 117 518 65 _c
476 13 422 -13 356 -13 _c
316 -13 281 -5 252 10 _c
223 25 199 49 181 82 _c
487 273 _m
487 339 473 390 446 428 _c
418 466 381 485 334 485 _c
}_e{286 485 249 466 222 428 _c
194 390 181 339 181 273 _c
181 207 194 155 222 117 _c
249 79 286 61 334 61 _c
381 61 418 79 446 117 _c
473 155 487 207 487 273 _c
_cl}_e}_d
/r{411 0 91 0 411 560 _sc
411 463 _m
401 469 390 473 378 476 _c
366 478 353 480 339 480 _c
288 480 249 463 222 430 _c
194 397 181 350 181 288 _c
181 0 _l
91 0 _l
91 547 _l
181 547 _l
181 462 _l
199 495 224 520 254 536 _c
284 552 321 560 365 560 _c
371 560 378 559 386 559 _c
393 558 401 557 411 555 _c
411 463 _l
_cl}_d
/s{{521 0 54 -13 472 560 _sc
443 531 _m
443 446 _l
417 458 391 468 364 475 _c
336 481 308 485 279 485 _c
234 485 200 478 178 464 _c
156 450 145 430 145 403 _c
145 382 153 366 169 354 _c
185 342 217 330 265 320 _c
296 313 _l
360 299 405 279 432 255 _c
458 230 472 195 472 151 _c
472 100 452 60 412 31 _c
372 1 316 -13 246 -13 _c
216 -13 186 -10 154 -5 _c
}_e{122 0 89 8 54 20 _c
54 113 _l
87 95 120 82 152 74 _c
184 65 216 61 248 61 _c
290 61 323 68 346 82 _c
368 96 380 117 380 144 _c
380 168 371 187 355 200 _c
339 213 303 226 247 238 _c
216 245 _l
160 257 119 275 95 299 _c
70 323 58 356 58 399 _c
58 450 76 490 112 518 _c
148 546 200 560 268 560 _c
301 560 332 557 362 552 _c
391 547 418 540 443 531 _c
}_e{_cl}_e}_d
/t{392 0 27 0 368 702 _sc
183 702 _m
183 547 _l
368 547 _l
368 477 _l
183 477 _l
183 180 _l
183 135 189 106 201 94 _c
213 81 238 75 276 75 _c
368 75 _l
368 0 _l
276 0 _l
206 0 158 13 132 39 _c
106 65 93 112 93 180 _c
93 477 _l
27 477 _l
27 547 _l
93 547 _l
93 702 _l
183 702 _l
_cl}_d
/v{592 0 30 0 562 547 _sc
30 547 _m
125 547 _l
296 88 _l
467 547 _l
562 547 _l
357 0 _l
235 0 _l
30 547 _l
_cl}_d
end readonly def

/BuildGlyph
 {exch begin
 CharStrings exch
 2 copy known not{pop /.notdef}if
 true 3 1 roll get exec
 end}_d

/BuildChar {
 1 index /Encoding get exch get
 1 index /BuildGlyph get exec
}_d

FontName currentdict end definefont pop
%!PS-Adobe-3.0 Resource-Font
%%Title: STIXGeneral-Regular
%%Copyright: Copyright (c) 2001-2010 by the STI Pub Companies, consisting of the American Chemical Society, the American Institute of Physics, the American Mathematical Society, the American Physical Society, Elsevier, Inc., and The Institute of Electrical and Electronic Engineers, Inc. Portions copyright (c) 1998-2003 by MicroPress, Inc. Portions copyright (c) 1990 by Elsevier, Inc. All rights reserved.
%%Creator: Converted from TrueType to type 3 by PPR
25 dict begin
/_d{bind def}bind def
/_m{moveto}_d
/_l{lineto}_d
/_cl{closepath eofill}_d
/_c{curveto}_d
/_sc{7 -1 roll{setcachedevice}{pop pop pop pop pop pop}ifelse}_d
/_e{exec}_d
/FontName /STIXGeneral-Regular def
/PaintType 0 def
/FontMatrix[.001 0 0 .001 0 0]def
/FontBBox[-970 -443 2000 1023]def
/FontType 3 def
/Encoding [ /uni0394 ] def
/FontInfo 10 dict dup begin
/FamilyName (STIXGeneral) def
/FullName (STIXGeneral-Regular) def
/Notice (Copyright (c) 2001-2010 by the STI Pub Companies, consisting of the American Chemical Society, the American Institute of Physics, the American Mathematical Society, the American Physical Society, Elsevier, Inc., and The Institute of Electrical and Electronic Engineers, Inc. Portions copyright (c) 1998-2003 by MicroPress, Inc. Portions copyright (c) 1990 by Elsevier, Inc. All rights reserved. STIX Fonts(TM) is a trademark of The Institute of Electrical and Electronics Engineers, Inc.) def
/Weight (Regular) def
/Version (Version 1.0.0) def
/ItalicAngle 0.0 def
/isFixedPitch false def
/UnderlinePosition -75 def
/UnderlineThickness 50 def
end readonly def
/CharStrings 1 dict dup begin
/uni0394{722 0 48 0 675 674 _sc
675 0 _m
48 0 _l
347 674 _l
367 674 _l
675 0 _l
524 92 _m
331 532 _l
136 92 _l
524 92 _l
_cl}_d
end readonly def

/BuildGlyph
 {exch begin
 CharStrings exch
 2 copy known not{pop /.notdef}if
 true 3 1 roll get exec
 end}_d

/BuildChar {
 1 index /Encoding get exch get
 1 index /BuildGlyph get exec
}_d

FontName currentdict end definefont pop
end
%%EndProlog
mpldict begin
234 324 translate
144 144 0 0 clipbox
gsave
0 0 m
144 0 l
144 144 l
0 144 l
cl
1.000 setgray
fill
grestore
1.000 setlinewidth
1 setlinejoin
2 setlinecap
[] 0 setdash
1.000 0.647 0.000 setrgbcolor
gsave
40.32 100.8 20.16 28.8 clipbox
49.8331 101.49 m
47.405 95.6545 l
47.0582 94.0027 l
47.2372 93.202 l
stroke
grestore
gsave
40.32 100.8 20.16 28.8 clipbox
43.3293 74.5877 m
38.4782 73.8418 l
35.4783 76.2806 l
stroke
grestore
gsave
40.32 100.8 20.16 28.8 clipbox
51.4327 86.3248 m
42.8008 76.4041 l
39.5201 76.0123 l
39.4922 78.7601 l
stroke
grestore
gsave
40.32 100.8 20.16 28.8 clipbox
44.2956 76.9452 m
40.8334 73.9159 l
41.9374 81.879 l
stroke
grestore
0.753 setgray
gsave
40.32 100.8 20.16 28.8 clipbox
51.6537 106.213 m
49.2292 100.203 l
48.8095 98.274 l
48.9763 97.337 l
stroke
grestore
gsave
40.32 100.8 20.16 28.8 clipbox
49.5279 90.6777 m
44.9902 86.7979 l
42.5894 86.5244 l
41.8376 87.1077 l
stroke
grestore
gsave
40.32 100.8 20.16 28.8 clipbox
58.0901 104.272 m
49.6323 91.0641 l
46.1851 90.4604 l
stroke
grestore
gsave
40.32 100.8 20.16 28.8 clipbox
49.6219 90.8367 m
46.0579 86.1333 l
46.8645 91.4478 l
stroke
grestore
1.000 1.000 0.000 setrgbcolor
gsave
40.32 100.8 20.16 28.8 clipbox
49.7304 105.334 m
46.8518 99.7158 l
46.1552 98.4254 l
46.0532 97.8824 l
stroke
grestore
gsave
40.32 100.8 20.16 28.8 clipbox
46.8663 81.2016 m
42.1725 74.919 l
40.3337 78.4945 l
39.0179 80.4092 l
stroke
grestore
gsave
40.32 100.8 20.16 28.8 clipbox
58.0206 100.491 m
48.4884 85.64 l
45.3632 83.3888 l
43.7973 86.9323 l
stroke
grestore
gsave
40.32 100.8 20.16 28.8 clipbox
51.5092 95.4944 m
46.7046 89.0163 l
45.816 90.451 l
45.7338 94.0376 l
stroke
grestore
0.000 0.502 0.000 setrgbcolor
gsave
40.32 100.8 20.16 28.8 clipbox
47.2028 97.6748 m
44.2099 91.6574 l
43.309 89.7463 l
42.9254 88.8746 l
stroke
grestore
gsave
40.32 100.8 20.16 28.8 clipbox
35.9175 53.6077 m
32.4053 54.6723 l
31.3448 59.4641 l
30.8914 63.6593 l
stroke
grestore
gsave
40.32 100.8 20.16 28.8 clipbox
48.278 76.8294 m
39.5563 66.4778 l
36.5825 66.4601 l
35.3423 66.5688 l
stroke
grestore
gsave
40.32 100.8 20.16 28.8 clipbox
45.3647 80.6185 m
40.6974 73.8409 l
39.4419 74.4821 l
39.108 77.3975 l
stroke
grestore
1.000 0.000 0.000 setrgbcolor
gsave
40.32 100.8 20.16 28.8 clipbox
44.8766 98.7785 m
41.8484 92.7197 l
40.9618 90.8791 l
40.5867 90.0895 l
stroke
grestore
gsave
40.32 100.8 20.16 28.8 clipbox
32.9262 50.5418 m
29.6388 51.0991 l
28.7809 55.6715 l
28.494 60.3185 l
stroke
grestore
gsave
40.32 100.8 20.16 28.8 clipbox
46.7776 75.1457 m
37.5885 63.4595 l
34.4202 62.4547 l
32.6623 62.3265 l
stroke
grestore
gsave
40.32 100.8 20.16 28.8 clipbox
44.959 81.845 m
39.3036 74.8279 l
37.3696 75.4312 l
36.2482 77.6878 l
stroke
grestore
0.000 0.000 1.000 setrgbcolor
gsave
40.32 100.8 20.16 28.8 clipbox
46.5597 98.2585 m
43.4896 92.1443 l
42.528 90.1662 l
42.0964 89.227 l
stroke
grestore
gsave
40.32 100.8 20.16 28.8 clipbox
30.5201 52.1326 m
27.2919 48.3737 l
26.9836 51.4659 l
27.3516 55.8606 l
stroke
grestore
gsave
40.32 100.8 20.16 28.8 clipbox
41.1815 71.125 m
32.6604 57.3202 l
30.297 56.3598 l
29.1682 58.2095 l
stroke
grestore
gsave
40.32 100.8 20.16 28.8 clipbox
40.1347 73.2514 m
35.3407 65.0909 l
34.0147 64.8243 l
33.497 66.319 l
stroke
grestore
0.502 0.000 0.502 setrgbcolor
gsave
40.32 100.8 20.16 28.8 clipbox
45.1116 99.8349 m
41.9858 93.886 l
40.9717 92.0884 l
40.4672 91.3094 l
stroke
grestore
gsave
40.32 100.8 20.16 28.8 clipbox
29.3137 53.0817 m
26.3856 48.8646 l
26.2905 52.3973 l
26.7929 56.7874 l
stroke
grestore
gsave
40.32 100.8 20.16 28.8 clipbox
39.3473 72.6273 m
31.2843 58.0989 l
28.788 56.2325 l
27.4063 56.9343 l
stroke
grestore
gsave
40.32 100.8 20.16 28.8 clipbox
40.0244 76.316 m
34.4412 67.6562 l
32.4675 67.2145 l
31.4479 68.9713 l
stroke
grestore
0 setlinecap
[6 6] 0 setdash
0.000 setgray
gsave
40.32 100.8 20.16 28.8 clipbox
8.64 28.8 m
60.48 129.6 l
stroke
grestore
2.000 setlinewidth
2 setlinecap
[] 0 setdash
gsave
40.32 100.8 20.16 28.8 clipbox
20.16 28.8 m
60.48 28.8 l
stroke
grestore
gsave
40.32 100.8 20.16 28.8 clipbox
20.16 28.8 m
20.16 129.6 l
stroke
grestore
gsave
24.320000 14.800000 translate
0.000000 rotate
/STIXGeneral-Regular findfont
8.0 scalefont
setfont
0.000000 0.720313 moveto
/uni0394 glyphshow

/BitstreamVeraSans-Roman findfont
8.0 scalefont
setfont
5.775986 0.720313 moveto
/E glyphshow

/BitstreamVeraSans-Roman findfont
5.6 scalefont
setfont
10.830673 4.920313 moveto
/A glyphshow

10.830673 -1.799687 moveto
/a glyphshow

14.262314 -1.799687 moveto
/d glyphshow

17.817001 -1.799687 moveto
/s glyphshow

20.734579 -1.799687 moveto
/comma glyphshow

22.624033 -1.799687 moveto
/t glyphshow

24.819736 -1.799687 moveto
/o glyphshow

28.245908 -1.799687 moveto
/p glyphshow


grestore
gsave
16.160000 63.700000 translate
90.000000 rotate
/STIXGeneral-Regular findfont
8.0 scalefont
setfont
0.000000 0.720313 moveto
/uni0394 glyphshow

/BitstreamVeraSans-Roman findfont
8.0 scalefont
setfont
5.775986 0.720313 moveto
/E glyphshow

/BitstreamVeraSans-Roman findfont
5.6 scalefont
setfont
10.830673 4.920313 moveto
/A glyphshow

10.830673 -1.799687 moveto
/a glyphshow

14.262314 -1.799687 moveto
/d glyphshow

17.817001 -1.799687 moveto
/s glyphshow

20.734579 -1.799687 moveto
/comma glyphshow

22.624033 -1.799687 moveto
/f glyphshow

24.595517 -1.799687 moveto
/c glyphshow

27.674423 -1.799687 moveto
/c glyphshow


grestore
1.000 setlinewidth
1 setlinecap
1.000 0.000 0.000 setrgbcolor
gsave
26.0751 50.4794 m
34.0632 48.7704 39.5678 52.1099 42.5887 60.4978 c
stroke
grestore
gsave
28.8696 48.2453 m
26.0751 50.4794 l
29.5391 51.3745 l
stroke
grestore
/BitstreamVeraSans-Roman findfont
8.000 scalefont
setfont
gsave
23.040000 40.005625 translate
0.000000 rotate
0.000000 0.000000 m /I glyphshow
2.359375 0.000000 m /n glyphshow
7.429688 0.000000 m /c glyphshow
11.828125 0.000000 m /r glyphshow
14.992188 0.000000 m /e glyphshow
19.914062 0.000000 m /a glyphshow
24.816406 0.000000 m /s glyphshow
28.984375 0.000000 m /i glyphshow
31.207031 0.000000 m /n glyphshow
36.277344 0.000000 m /g glyphshow
grestore
gsave
23.040000 31.040000 translate
0.000000 rotate
0.000000 0.000000 m /c glyphshow
4.398438 0.000000 m /o glyphshow
9.292969 0.000000 m /v glyphshow
14.027344 0.000000 m /e glyphshow
18.949219 0.000000 m /r glyphshow
22.238281 0.000000 m /a glyphshow
27.140625 0.000000 m /g glyphshow
32.218750 0.000000 m /e glyphshow
grestore
0.500 setlinewidth
0 setlinejoin
0 setlinecap
0.000 setgray
gsave
43.2 100.8 79.2 28.8 clipbox
/o {
gsave
newpath
translate
0.5 setlinewidth
0 setlinejoin
0 setlinecap
-1.5 -1.5 m
1.5 -1.5 l
1.5 1.5 l
-1.5 1.5 l
cl
gsave
0.000 0.000 1.000 setrgbcolor
fill
grestore
stroke
grestore
} bind def
88.3036 45.4011 o
88.8142 45.4809 o
93.9011 53.029 o
94.2752 53.1527 o
109.492 70.4679 o
109.981 70.8931 o
100.697 48.036 o
102.557 49.3652 o
109.654 58.9566 o
112.478 62.7968 o
93.5415 39.6033 o
96.2848 41.0505 o
102.355 52.7049 o
105.238 55.4419 o
grestore
1.000 setlinewidth
1 setlinejoin
[6 6] 0 setdash
0.000 0.000 1.000 setrgbcolor
gsave
43.2 100.8 79.2 28.8 clipbox
88.3036 41.6145 m
88.7969 42.0862 l
89.2903 42.5578 l
89.7836 43.0294 l
90.277 43.501 l
90.7703 43.9726 l
91.2637 44.4442 l
91.757 44.9159 l
92.2504 45.3875 l
92.7437 45.8591 l
93.2371 46.3307 l
93.7304 46.8023 l
94.2238 47.2739 l
94.7171 47.7456 l
95.2105 48.2172 l
95.7038 48.6888 l
96.1972 49.1604 l
96.6905 49.632 l
97.1838 50.1036 l
97.6772 50.5752 l
98.1705 51.0469 l
98.6639 51.5185 l
99.1572 51.9901 l
99.6506 52.4617 l
100.144 52.9333 l
100.637 53.4049 l
101.131 53.8766 l
101.624 54.3482 l
102.117 54.8198 l
102.611 55.2914 l
103.104 55.763 l
103.597 56.2346 l
104.091 56.7063 l
104.584 57.1779 l
105.077 57.6495 l
105.571 58.1211 l
106.064 58.5927 l
106.557 59.0643 l
107.051 59.5359 l
107.544 60.0076 l
108.038 60.4792 l
108.531 60.9508 l
109.024 61.4224 l
109.518 61.894 l
110.011 62.3656 l
110.504 62.8373 l
110.998 63.3089 l
111.491 63.7805 l
111.984 64.2521 l
112.478 64.7237 l
stroke
grestore
0.500 setlinewidth
0 setlinejoin
[] 0 setdash
0.000 setgray
gsave
43.2 100.8 79.2 28.8 clipbox
/o {
gsave
newpath
translate
0.5 setlinewidth
0 setlinejoin
0 setlinecap
-1.5 -1.5 m
1.5 -1.5 l
1.5 1.5 l
-1.5 1.5 l
cl
gsave
0.000 0.500 0.000 setrgbcolor
fill
grestore
stroke
grestore
} bind def
85.4454 74.185 o
86.0821 74.1394 o
90.5757 66.9508 o
91.0646 66.8699 o
104.737 79.5924 o
105.312 79.3621 o
98.4322 67.5867 o
100.154 68.9376 o
105.66 77.9108 o
106.165 78.1218 o
90.712 66.0948 o
93.5508 67.0968 o
98.1287 76.9299 o
101.111 77.5208 o
grestore
1.000 setlinewidth
1 setlinejoin
[6 6] 0 setdash
0.000 0.500 0.000 setrgbcolor
gsave
43.2 100.8 79.2 28.8 clipbox
85.4454 67.8729 m
85.8682 68.0597 l
86.2911 68.2465 l
86.7139 68.4333 l
87.1368 68.6201 l
87.5596 68.8069 l
87.9824 68.9937 l
88.4053 69.1805 l
88.8281 69.3673 l
89.251 69.5541 l
89.6738 69.7409 l
90.0967 69.9277 l
90.5195 70.1145 l
90.9424 70.3013 l
91.3652 70.4881 l
91.7881 70.6749 l
92.2109 70.8617 l
92.6338 71.0485 l
93.0566 71.2353 l
93.4795 71.4221 l
93.9023 71.6089 l
94.3251 71.7957 l
94.748 71.9825 l
95.1708 72.1693 l
95.5937 72.3561 l
96.0165 72.5429 l
96.4394 72.7297 l
96.8622 72.9165 l
97.2851 73.1033 l
97.7079 73.2901 l
98.1308 73.4769 l
98.5536 73.6637 l
98.9765 73.8505 l
99.3993 74.0373 l
99.8222 74.2241 l
100.245 74.4109 l
100.668 74.5977 l
101.091 74.7845 l
101.514 74.9713 l
101.936 75.1581 l
102.359 75.3449 l
102.782 75.5317 l
103.205 75.7185 l
103.628 75.9053 l
104.051 76.0921 l
104.473 76.2789 l
104.896 76.4657 l
105.319 76.6525 l
105.742 76.8393 l
106.165 77.0261 l
stroke
grestore
0.500 setlinewidth
0 setlinejoin
[] 0 setdash
0.000 setgray
gsave
43.2 100.8 79.2 28.8 clipbox
/o {
gsave
newpath
translate
0.5 setlinewidth
0 setlinejoin
0 setlinecap
-1.5 -1.5 m
1.5 -1.5 l
1.5 1.5 l
-1.5 1.5 l
cl
gsave
0.750 0.000 0.750 setrgbcolor
fill
grestore
stroke
grestore
} bind def
88.3318 102.099 o
89.0657 102.086 o
92.9864 81.5056 o
93.6322 81.371 o
105.606 89.2391 o
106.558 89.1335 o
100.481 87.1672 o
102.927 87.58 o
106.701 90.771 o
109.575 90.8188 o
92.8224 91.8594 o
95.9712 91.9846 o
98.6778 92.4481 o
102.121 92.5686 o
grestore
1.000 setlinewidth
1 setlinejoin
[6 6] 0 setdash
0.750 0.000 0.750 setrgbcolor
gsave
43.2 100.8 79.2 28.8 clipbox
88.3318 93.6933 m
88.7654 93.5736 l
89.1989 93.4539 l
89.6324 93.3343 l
90.0659 93.2146 l
90.4995 93.095 l
90.933 92.9753 l
91.3665 92.8556 l
91.8 92.736 l
92.2336 92.6163 l
92.6671 92.4967 l
93.1006 92.377 l
93.5341 92.2573 l
93.9677 92.1377 l
94.4012 92.018 l
94.8347 91.8984 l
95.2682 91.7787 l
95.7018 91.6591 l
96.1353 91.5394 l
96.5688 91.4197 l
97.0023 91.3001 l
97.4359 91.1804 l
97.8694 91.0608 l
98.3029 90.9411 l
98.7364 90.8214 l
99.17 90.7018 l
99.6035 90.5821 l
100.037 90.4625 l
100.471 90.3428 l
100.904 90.2231 l
101.338 90.1035 l
101.771 89.9838 l
102.205 89.8642 l
102.638 89.7445 l
103.072 89.6248 l
103.505 89.5052 l
103.939 89.3855 l
104.372 89.2659 l
104.806 89.1462 l
105.239 89.0265 l
105.673 88.9069 l
106.106 88.7872 l
106.54 88.6676 l
106.973 88.5479 l
107.407 88.4283 l
107.84 88.3086 l
108.274 88.1889 l
108.708 88.0693 l
109.141 87.9496 l
109.575 87.83 l
stroke
grestore
0.500 setlinewidth
0 setlinejoin
[] 0 setdash
0.000 setgray
gsave
43.2 100.8 79.2 28.8 clipbox
/o {
gsave
newpath
translate
0.5 setlinewidth
0 setlinejoin
0 setlinecap
-1.5 -1.5 m
1.5 -1.5 l
1.5 1.5 l
-1.5 1.5 l
cl
gsave
0.000 0.750 0.750 setrgbcolor
fill
grestore
stroke
grestore
} bind def
93.0233 124.676 o
93.8587 124.805 o
97.3169 90.236 o
98.1313 90.135 o
107.897 95.6677 o
109.271 95.6632 o
103.14 100.799 o
105.919 100.849 o
108.287 100.675 o
111.335 100.561 o
95.8947 106.899 o
99.0557 106.994 o
100.285 104.868 o
103.819 104.931 o
grestore
1.000 setlinewidth
1 setlinejoin
[6 6] 0 setdash
0.000 0.750 0.750 setrgbcolor
gsave
43.2 100.8 79.2 28.8 clipbox
93.0233 111.865 m
93.397 111.511 l
93.7707 111.157 l
94.1444 110.803 l
94.5181 110.449 l
94.8918 110.095 l
95.2655 109.741 l
95.6392 109.387 l
96.0129 109.033 l
96.3866 108.678 l
96.7603 108.324 l
97.134 107.97 l
97.5077 107.616 l
97.8814 107.262 l
98.2551 106.908 l
98.6288 106.554 l
99.0025 106.2 l
99.3762 105.846 l
99.7499 105.492 l
100.124 105.137 l
100.497 104.783 l
100.871 104.429 l
101.245 104.075 l
101.618 103.721 l
101.992 103.367 l
102.366 103.013 l
102.74 102.659 l
103.113 102.305 l
103.487 101.951 l
103.861 101.596 l
104.234 101.242 l
104.608 100.888 l
104.982 100.534 l
105.355 100.18 l
105.729 99.826 l
106.103 99.4719 l
106.476 99.1178 l
106.85 98.7637 l
107.224 98.4096 l
107.598 98.0555 l
107.971 97.7014 l
108.345 97.3472 l
108.719 96.9931 l
109.092 96.639 l
109.466 96.2849 l
109.84 95.9308 l
110.213 95.5767 l
110.587 95.2226 l
110.961 94.8685 l
111.335 94.5144 l
stroke
grestore
2.000 setlinewidth
2 setlinecap
[] 0 setdash
0.000 setgray
gsave
43.2 100.8 79.2 28.8 clipbox
79.2 28.8 m
122.4 28.8 l
stroke
grestore
gsave
43.2 100.8 79.2 28.8 clipbox
79.2 28.8 m
79.2 129.6 l
stroke
grestore
gsave
90.300000 14.800000 translate
0.000000 rotate
/STIXGeneral-Regular findfont
8.0 scalefont
setfont
0.000000 0.720313 moveto
/uni0394 glyphshow

/BitstreamVeraSans-Roman findfont
8.0 scalefont
setfont
5.775986 0.720313 moveto
/E glyphshow

/BitstreamVeraSans-Roman findfont
5.6 scalefont
setfont
10.830673 4.920313 moveto
/B glyphshow

10.830673 -1.799687 moveto
/a glyphshow

14.262314 -1.799687 moveto
/d glyphshow

17.817001 -1.799687 moveto
/s glyphshow


grestore
gsave
76.200000 68.700000 translate
90.000000 rotate
/STIXGeneral-Regular findfont
8.0 scalefont
setfont
0.000000 0.720313 moveto
/uni0394 glyphshow

/BitstreamVeraSans-Roman findfont
8.0 scalefont
setfont
5.775986 0.720313 moveto
/E glyphshow

/BitstreamVeraSans-Roman findfont
5.6 scalefont
setfont
10.830673 4.920313 moveto
/A glyphshow

10.830673 -1.799687 moveto
/a glyphshow

14.262314 -1.799687 moveto
/d glyphshow

17.817001 -1.799687 moveto
/s glyphshow


grestore
1.000 setlinewidth
0 setlinejoin
0 setlinecap
1.000 0.000 0.000 setrgbcolor
gsave
126.72 114.48 m
128.88 108 l
126.828 108 l
126.828 43.2 l
126.612 43.2 l
126.612 108 l
124.56 108 l
cl
gsave
fill
grestore
stroke
grestore
gsave
134.520312 59.254688 translate
90.000000 rotate
0.000000 0.000000 m /I glyphshow
2.359375 0.000000 m /n glyphshow
7.429688 0.000000 m /c glyphshow
11.828125 0.000000 m /r glyphshow
14.992188 0.000000 m /e glyphshow
19.914062 0.000000 m /a glyphshow
24.816406 0.000000 m /s glyphshow
28.984375 0.000000 m /i glyphshow
31.207031 0.000000 m /n glyphshow
36.277344 0.000000 m /g glyphshow
grestore
gsave
143.485937 58.965625 translate
90.000000 rotate
0.000000 0.000000 m /space glyphshow
2.542969 0.000000 m /C glyphshow
8.128906 0.000000 m /o glyphshow
13.023438 0.000000 m /v glyphshow
17.757812 0.000000 m /e glyphshow
22.679688 0.000000 m /r glyphshow
25.968750 0.000000 m /a glyphshow
30.871094 0.000000 m /g glyphshow
35.949219 0.000000 m /e glyphshow
grestore

end
showpage
